^C:\USERS\ULYSSES\DROPBOX\HOMO+SYNTHETICUS_IMPLEMENTATION\OUTPUT\VHMSG\ACTIVEMQ\ACTIVEMQ-CPP\VS2010-BUILD\RELEASEDLL\ACTIVEMQ-CPP-EXAMPLE\MAIN.OBJ|C:\USERS\ULYSSES\DROPBOX\HOMO+SYNTHETICUS_IMPLEMENTATION\OUTPUT\VHMSG\ACTIVEMQ\ACTIVEMQ-CPP\VS2010-BUILD\WIN32\RELEASEDLL\ACTIVEMQ-CPP.LIB
C:\USERS\ULYSSES\DROPBOX\HOMO+SYNTHETICUS_IMPLEMENTATION\OUTPUT\VHMSG\ACTIVEMQ\ACTIVEMQ-CPP\VS2010-BUILD\RELEASEDLL\ACTIVEMQ-CPP-EXAMPLE.EXE
C:\USERS\ULYSSES\DROPBOX\HOMO+SYNTHETICUS_IMPLEMENTATION\OUTPUT\VHMSG\ACTIVEMQ\ACTIVEMQ-CPP\VS2010-BUILD\RELEASEDLL\ACTIVEMQ-CPP-EXAMPLE\ACTIVEMQ-CPP-EXAMPLE.EXE.INTERMEDIATE.MANIFEST
C:\USERS\ULYSSES\DROPBOX\HOMO+SYNTHETICUS_IMPLEMENTATION\OUTPUT\VHMSG\ACTIVEMQ\ACTIVEMQ-CPP\VS2010-BUILD\RELEASEDLL\ACTIVEMQ-CPP-EXAMPLE.PDB
